<svg xmlns="http://www.w3.org/2000/svg" width="14" height="14" viewBox="0 0 14 14">
  <path id="ic_arrow_back_24px" d="M18,10.125H7.351l4.891-4.891L11,4,4,11l7,7,1.234-1.234L7.351,11.875H18Z" transform="translate(-4 -4)"/>
</svg>
