<svg xmlns="http://www.w3.org/2000/svg" width="15.003" height="13.083" viewBox="0 0 15.003 13.083">
  <path id="Path_424" data-name="Path 424" d="M158.438,1215.317q.531-.581,1.08-1.1a12.978,12.978,0,0,1,1.457-1.166,4.246,4.246,0,0,1,1.525-.686,1.224,1.224,0,0,1,1.183.343,3.168,3.168,0,0,1,.668,1.337,17.243,17.243,0,0,1,.377,1.765q.206,1.285.309,1.7.411,1.611.634,2.211.309.788.608.789t.857-.729a15.327,15.327,0,0,0,1.226-1.962,2.7,2.7,0,0,0,.325-1.148,1.373,1.373,0,0,0-.24-.891.943.943,0,0,0-.72-.377,2.079,2.079,0,0,0-1.131.36,4.073,4.073,0,0,1,1.011-2.074,4.225,4.225,0,0,1,1.74-1.2,3.535,3.535,0,0,1,1.911-.206,1.994,1.994,0,0,1,1.388.926,2.993,2.993,0,0,1,.274,2.16,11.162,11.162,0,0,1-1.234,3.377,18.424,18.424,0,0,1-2.023,2.88,22.1,22.1,0,0,1-2.108,2.16A15.265,15.265,0,0,1,166,1225a1.681,1.681,0,0,1-1.337.274,2.324,2.324,0,0,1-1.114-.617,3.575,3.575,0,0,1-.7-.976,13.082,13.082,0,0,1-.565-1.594q-.189-.548-.755-2.434-.5-1.594-.737-2.314a5.6,5.6,0,0,0-.5-1.234.557.557,0,0,0-.617-.1,2.985,2.985,0,0,0-.72.36l-.343.223-.6-.789Z" transform="translate(-158.008 -1212.233)"/>
</svg>
